Standardise an Events dataset • galaxias
…
obs_id <- obs |>
  select(site_code, year, any_of(species$abbreviation)) |>
  set_events(
    eventID = composite_id(sequential_id(), site_code, year)
    ) |>
  relocate(eventID, .before = 1) # re-position
#> ⠙ Checking 1 column: eventID
#> ✔ Checking 1 column: eventID [328ms]
#> 

obs_id
#> # A tibble: 3,633 × 11
#>    eventID    site_code  year  cpar  csig limdum limper limtas  lper  lver  ulae
#>    <chr>      <chr>     <dbl> <dbl> <dbl>  <dbl>  <dbl>  <dbl> <dbl> <dbl> <dbl>
#>  1 00001-AMA… AMA100     2004     1     0      0      0      1     1     0     0
#>  2 00002-AMA… AMA100     2007     1     0      1      0      1     0     0     0
#>  3 00003-AMA… AMA100     2007     1     0      1      0      1     0     0     0
#>  4 00004-AMA… AMA100     2005     1     1      1      0      1     0     0     0
#>  5 00005-AMA… AMA100     2008     1     0      1      0      0     1     0     0
#>  6 00006-AMA… AMA100     2008     1     0      1      0      1     1     0     0
#>  7 00007-AMA… AMA100     2013     1     0      1      0      1     0     0     0
#>  8 00008-AMA… AMA100     2008     1     0      1      0      1     1     0     0
#>  9 00009-AMA… AMA100     2013     1     1      0      0      0     0     0     0
#> 10 00010-AMA… AMA100     2014     1     1      1      0      1     0     0     0
#> # ℹ 3,623 more rows
…
obs_id_site
#> # A tibble: 3,633 × 15
#>    eventID   decimalLatitude decimalLongitude site_code  year  cpar  csig limdum
#>    <chr>               <dbl>            <dbl> <chr>     <dbl> <dbl> <dbl>  <dbl>
#>  1 00001-AM…           -35.2             149. AMA100     2004     1     0      0
#>  2 00002-AM…           -35.2             149. AMA100     2007     1     0      1
#>  3 00003-AM…           -35.2             149. AMA100     2007     1     0      1
#>  4 00004-AM…           -35.2             149. AMA100     2005     1     1      1
#>  5 00005-AM…           -35.2             149. AMA100     2008     1     0      1
#>  6 00006-AM…           -35.2             149. AMA100     2008     1     0      1
#>  7 00007-AM…           -35.2             149. AMA100     2013     1     0      1
#>  8 00008-AM…           -35.2             149. AMA100     2008     1     0      1
#>  9 00009-AM…           -35.2             149. AMA100     2013     1     1      0
#> 10 00010-AM…           -35.2             149. AMA100     2014     1     1      1
#> # ℹ 3,623 more rows
#> # ℹ 7 more variables: limper <dbl>, limtas <dbl>, lper <dbl>, lver <dbl>,
#> #   ulae <dbl>, coordinateUncertaintyInMeters <dbl>, geodeticDatum <chr>

We now have a dataframe with sampling and site information, organised
at the sample-level. Our final step is to reduce
obs_id_site to only include columns with valid column names
in Event-based datasets. This drops the frog species columns from our
dataframe.

events <- obs_id_site |>
  select(
    any_of(event_terms())
    )

events
#> # A tibble: 3,633 × 6
#>    eventID            year decimalLatitude decimalLongitude geodeticDatum
#>    <chr>             <dbl>           <dbl>            <dbl> <chr>        
#>  1 00001-AMA100-2004  2004           -35.2             149. WGS84        
#>  2 00002-AMA100-2007  2007           -35.2             149. WGS84        
#>  3 00003-AMA100-2007  2007           -35.2             149. WGS84        
#>  4 00004-AMA100-2005  2005           -35.2             149. WGS84        
#>  5 00005-AMA100-2008  2008           -35.2             149. WGS84        
#>  6 00006-AMA100-2008  2008           -35.2             149. WGS84        
#>  7 00007-AMA100-2013  2013           -35.2             149. WGS84        
#>  8 00008-AMA100-2008  2008           -35.2             149. WGS84        
#>  9 00009-AMA100-2013  2013           -35.2             149. WGS84        
#> 10 00010-AMA100-2014  2014           -35.2             149. WGS84        
#> # ℹ 3,623 more rows
#> # ℹ 1 more variable: coordinateUncertaintyInMeters <dbl>
…
obs_long <- obs_id_site |>
  select(eventID, any_of(species$abbreviation)) |>
  pivot_longer(cols = species$abbreviation,
               names_to = "abbreviation",
               values_to = "presence")

obs_long
#> # A tibble: 29,064 × 3
#>    eventID           abbreviation presence
#>    <chr>             <chr>           <dbl>
#>  1 00001-AMA100-2004 cpar                1
#>  2 00001-AMA100-2004 csig                0
#>  3 00001-AMA100-2004 limdum              0
#>  4 00001-AMA100-2004 limper              0
#>  5 00001-AMA100-2004 limtas              1
#>  6 00001-AMA100-2004 lper                1
#>  7 00001-AMA100-2004 lver                0
#>  8 00001-AMA100-2004 ulae                0
#>  9 00002-AMA100-2007 cpar                1
#> 10 00002-AMA100-2007 csig                0
#> # ℹ 29,054 more rows
…
obs_long_dwc
#> # A tibble: 29,064 × 7
#>    eventID           abbreviation occurrenceID    basisOfRecord occurrenceStatus
#>    <chr>             <chr>        <chr>           <chr>         <chr>           
#>  1 00001-AMA100-2004 cpar         00001-AMA100-2… humanObserva… present         
#>  2 00001-AMA100-2004 csig         00001-AMA100-2… humanObserva… absent          
#>  3 00001-AMA100-2004 limdum       00001-AMA100-2… humanObserva… absent          
#>  4 00001-AMA100-2004 limper       00001-AMA100-2… humanObserva… absent          
#>  5 00001-AMA100-2004 limtas       00001-AMA100-2… humanObserva… present         
#>  6 00001-AMA100-2004 lper         00001-AMA100-2… humanObserva… present         
#>  7 00001-AMA100-2004 lver         00001-AMA100-2… humanObserva… absent          
#>  8 00001-AMA100-2004 ulae         00001-AMA100-2… humanObserva… absent          
#>  9 00002-AMA100-2007 cpar         00002-AMA100-2… humanObserva… present         
#> 10 00002-AMA100-2007 csig         00002-AMA100-2… humanObserva… absent          
#> # ℹ 29,054 more rows
#> # ℹ 2 more variables: scientificName <chr>, vernacularName <chr>
…
